Listening for transport dt_socket at address: 45759
15:36:16,949 INFO  ~ Starting /workspace/tpsecuweb/yabe
:: loading settings :: url = jar:file:/matieres/5MMSDSI/play-1.5.3/framework/lib/ivy-2.4.0.jar!/org/apache/ivy/core/settings/ivysettings.xml
15:36:17,138 INFO  ~ Module crud is available (/matieres/5MMSDSI/play-1.5.3/modules/crud)
15:36:17,139 INFO  ~ Module secure is available (/matieres/5MMSDSI/play-1.5.3/modules/secure)
15:36:17,166 WARN  ~ You're running Play! in DEV mode
15:36:17,226 INFO  ~ Listening for HTTP at localhost/127.0.0.1:9000 (Waiting a first request to start) ...
~ Server is up and running
